{
  "item1": [
    {
      "query": "Is the Haskell Programming From First Principles book worth buying?",
      "embeddings": [
        0.07958372682332993,
        0.07871313393115997,
        0.001375969615764916,
        0.01313196774572134,
        -0.0274769626557827,
        -0.015591573901474476,
        -0.00209119264036417,
        0.10372929275035858,
        -0.020892491564154625,
        0.1390572488307953,
        0.05240393429994583,
        -0.003480524756014347,
        -0.04244489222764969,
        0.044122833758592606,
        0.007335468661040068,
        0.004680838901549578,
        -0.01209305226802826,
        0.041897207498550415,
        0.02383812703192234,
        0.048572465777397156,
        -0.015046868473291397,
        -0.041228774935007095,
        0.023681024089455605,
        -0.02030889503657818,
        0.015369191765785217,
        -0.010377096012234688,
        0.07495264708995819,
        -0.01693817414343357,
        -0.08464570343494415,
        0.025148415938019753,
        0.10531435161828995,
        0.021206015720963478,
        0.019752543419599533,
        -0.041571423411369324,
        0.04127497971057892,
        -0.08091197907924652,
        0.021168295294046402,
        0.04283696785569191,
        0.0014619557186961174,
        -0.05478215590119362,
        0.011052585206925869,
        0.09062813967466354,
        0.04189181700348854,
        -0.0011467710137367249,
        0.022587578743696213,
        -0.013056331314146519,
        -0.03557171672582626,
        -0.012373227626085281,
        0.022440453991293907,
        0.008149184286594391,
        -0.0229533351957798,
        0.02003498561680317,
        -0.05853349715471268,
        0.0533471517264843,
        -0.0009430653299205005,
        -0.0616854727268219,
        -0.018815502524375916,
        0.008456135168671608,
        -0.05076582357287407,
        -0.009553909301757812,
        -0.011448114179074764,
        -0.017808331176638603,
        -0.007512378040701151,
        -0.04471278190612793,
        -0.014208109118044376,
        0.014847628772258759,
        -0.032298121601343155,
        0.06684248149394989,
        -0.0046083624474704266,
        -0.041500236839056015,
        -0.01075804978609085,
        0.024465909227728844,
        -0.015960218384861946,
        -0.03743479773402214,
        0.021625490859150887,
        -0.04644390568137169,
        0.0464625209569931,
        0.008627557195723057,
        -0.02543562836945057,
        -0.01156708225607872,
        0.021562790498137474,
        -0.10868258774280548,
        0.030055632814764977,
        0.026371300220489502,
        -0.017481576651334763,
        0.007136903703212738,
        -0.0029594984371215105,
        0.01180317997932434,
        0.030046863481402397,
        -0.04589618742465973,
        -0.07021863013505936,
        0.008764759637415409,
        0.04987495765089989,
        0.04951268807053566,
        -0.04828638583421707,
        -0.03902705758810043,
        -0.0008634941186755896,
        -0.009639084339141846,
        0.06169138848781586,
        -0.005501410458236933,
        0.10873432457447052,
        0.0445244200527668,
        0.025195125490427017,
        0.008065523579716682,
        -0.027759550139307976,
        -0.08471975475549698,
        0.015792053192853928,
        -0.003119058208540082,
        -0.012846515513956547,
        -0.07843385636806488,
        0.02559230476617813,
        0.0015358428936451674,
        0.010128925554454327,
        -0.09993696957826614,
        0.03582443296909332,
        -0.01087830401957035,
        -0.032690975815057755,
        -0.023947488516569138,
        0.0962064266204834,
        0.011185814626514912,
        -0.046204958111047745,
        0.039311282336711884,
        0.0182740930467844,
        -0.0524514839053154,
        0.027630705386400223,
        -0.07862488180398941,
        -0.009855899959802628,
        -0.021573824808001518,
        0.09114709496498108,
        0.07408485561609268,
        0.009756900370121002,
        0.079533152282238,
        -0.052591778337955475,
        -0.018701819702982903,
        0.05190020799636841,
        0.08272791653871536,
        -0.048469215631484985,
        -0.035589560866355896,
        -0.007099505513906479,
        0.043421197682619095,
        -0.08190633356571198,
        0.038713037967681885,
        -0.06150812655687332,
        -0.012762879021465778,
        0.01012985035777092,
        0.08706696331501007,
        -0.017782747745513916,
        -0.004765708930790424,
        -0.03381635248661041,
        0.08255620300769806,
        -0.029927324503660202,
        -0.0025878518354147673,
        0.018641456961631775,
        -0.017721503973007202,
        -0.01830163039267063,
        0.02705376222729683,
        0.09135344624519348,
        -0.003020656993612647,
        -0.012782455421984196,
        -0.05401424691081047,
        0.007931025698781013,
        -0.007677501067519188,
        -0.003985572140663862,
        0.06351659446954727,
        -0.0808313712477684,
        -0.00782601535320282,
        0.09663387387990952,
        -0.07541485130786896,
        0.00023239152505993843,
        0.009226733818650246,
        0.12026278674602509,
        -0.059204235672950745,
        -0.050721704959869385,
        -0.0213063545525074,
        -0.022846031934022903,
        0.02379150129854679,
        0.01611277461051941,
        -0.02036924660205841,
        0.024858513846993446,
        0.029980605468153954,
        -0.016343194991350174,
        -0.00880688987672329,
        0.04655611515045166,
        0.017152996733784676,
        -0.034622613340616226,
        -0.04011109471321106,
        -0.09461978822946548,
        0.006125152576714754,
        0.002891521668061614,
        -0.01641956716775894,
        -0.01401046197861433,
        -0.036992669105529785,
        -0.010379059240221977,
        -0.028784334659576416,
        -0.03467995673418045,
        -0.021380014717578888,
        -0.020506689324975014,
        -0.038465239107608795,
        0.03451553359627724,
        0.04589010030031204,
        0.025002000853419304,
        0.06454666703939438,
        0.021097499877214432,
        0.11637669801712036,
        -0.0015948181971907616,
        -0.034483782947063446,
        -0.021590469405055046,
        0.048504967242479324,
        -0.040751051157712936,
        -0.04989093169569969,
        0.062378816306591034,
        0.01709650829434395,
        0.03747088462114334,
        -0.014240371994674206,
        0.030414700508117676,
        -0.07196831703186035,
        0.02343851886689663,
        -0.05862101539969444,
        0.017020314931869507,
        -0.032552506774663925,
        -0.027231035754084587,
        -0.06389973312616348,
        -0.05076279863715172,
        0.07568013668060303,
        0.08723524212837219,
        0.008366154506802559,
        0.004251787904649973,
        0.04811790585517883,
        0.013960244134068489,
        0.03507461026310921,
        -0.02902202121913433,
        -0.00900314375758171,
        0.08482073992490768,
        0.009979456663131714,
        0.025795428082346916,
        -0.012517312541604042,
        -0.06900480389595032,
        0.021103285253047943,
        0.01978396810591221,
        0.051206476986408234,
        0.029733149334788322,
        0.011197010055184364,
        0.01703866571187973,
        0.03917727991938591,
        0.006305993534624577,
        0.030929479748010635,
        0.052109286189079285,
        0.003627446945756674,
        -0.03397955000400543,
        -0.05958927050232887,
        -0.035060156136751175,
        -0.011487036012113094,
        0.028626004233956337,
        -0.05016506835818291,
        0.0073824115097522736,
        -0.023086467757821083,
        0.048433512449264526,
        0.00813302118331194,
        0.043688658624887466,
        0.03966141492128372,
        0.028368784114718437,
        0.01765299402177334,
        0.026410914957523346,
        -0.0639655590057373,
        -0.052973195910453796,
        -0.029667245224118233,
        -0.007989550940692425,
        -0.017987877130508423,
        -0.09148724377155304,
        -0.04883190989494324,
        0.03989163041114807,
        -0.03289979323744774,
        0.024924887344241142,
        -0.061756547540426254,
        0.05021165683865547,
        -0.006205738056451082,
        -0.023177115246653557,
        0.014868335798382759,
        0.01994531787931919,
        0.04282085597515106,
        -0.019254308193922043,
        -0.012724784202873707,
        0.011712387204170227,
        -0.08694390952587128,
        -0.03994247317314148,
        -0.024079566821455956,
        0.008301781490445137,
        -0.03267562761902809,
        -0.06299921870231628,
        -0.03656735271215439,
        -0.012830357067286968,
        -0.027234474197030067,
        -0.02298392355442047,
        -0.01121418084949255,
        0.06442034989595413,
        0.0755537748336792,
        0.007884281687438488,
        0.06270498037338257,
        0.015987461432814598,
        0.047722771763801575,
        -0.042499858886003494,
        -0.06803042441606522,
        -0.027298152446746826,
        0.04671035706996918,
        -0.0507381334900856,
        -0.022866956889629364,
        0.006392181850969791,
        -0.006348890718072653,
        -0.028346490114927292,
        -0.010599393397569656,
        0.03861099109053612,
        -0.02590087614953518,
        -0.028819909319281578,
        0.025105537846684456,
        -0.023490360006690025,
        0.025032103061676025,
        0.012836405076086521,
        -0.03510265797376633,
        0.020428873598575592,
        -0.040592260658741,
        0.02143031731247902,
        -0.031908247619867325,
        -0.07634760439395905,
        -0.008417879231274128,
        -0.006810431368649006,
        -0.024622542783617973,
        -0.002071714261546731,
        -0.008299373090267181,
        0.02606859803199768,
        -0.017366232350468636,
        0.02128707431256771,
        0.044335272163152695,
        0.023227766156196594,
        -0.12481831759214401,
        0.05800280719995499,
        0.09399998933076859,
        -0.008461791090667248,
        -0.06242716312408447,
        0.0873354971408844,
        -0.00803384743630886,
        -0.10538855940103531,
        -0.003865973325446248,
        -0.07522555440664291,
        0.02813420072197914,
        0.0361262746155262,
        0.09140875935554504,
        0.01754291169345379,
        -0.007814452983438969,
        0.03254289552569389,
        0.058925557881593704,
        0.04815978929400444,
        0.05836906656622887,
        -0.04779299348592758,
        -0.0070165181532502174,
        -0.007286002393811941,
        0.010669647715985775,
        0.011330042965710163,
        0.08751386404037476,
        -0.014896475709974766,
        0.07267396152019501,
        -0.014376371167600155,
        0.03797672688961029,
        0.022610481828451157,
        6.366288289427757e-05,
        -0.05651888996362686,
        0.0042673517018556595,
        0.061210986226797104,
        -0.023438172414898872,
        -0.029308896511793137,
        -0.025470467284321785,
        0.018759993836283684,
        -0.1074502095580101,
        0.07961864024400711,
        -0.021952705457806587,
        -0.02437693439424038,
        -0.07773534208536148,
        -0.0031351635698229074,
        -0.07119850814342499,
        -0.03423764556646347,
        -0.04121847823262215,
        -0.013018755242228508,
        0.003227716777473688,
        0.028303854167461395,
        -0.016736099496483803,
        0.035285092890262604,
        0.0028779194690287113,
        0.07681548595428467,
        0.006228576879948378,
        -0.04491353780031204,
        0.038817066699266434,
        0.013732078485190868,
        -0.005362701136618853,
        0.004700756166130304,
        0.06316567957401276,
        -0.07973673939704895,
        0.004873344674706459,
        -0.06585180014371872,
        0.04197726026177406,
        -0.030394984409213066,
        -0.0002258489839732647,
        -0.019759688526391983,
        -0.00942081119865179,
        -0.010883440263569355,
        -0.08325979113578796,
        -0.07307113707065582,
        0.0258465725928545,
        -0.05853227153420448,
        0.0025572865270078182,
        -0.009683093056082726,
        0.06268323212862015,
        -0.05157697945833206,
        -0.03119966760277748,
        0.06558530032634735,
        0.03277784213423729,
        -0.011377467773854733,
        0.0321158729493618,
        -0.015293550677597523,
        -0.03314322233200073,
        -0.030975084751844406,
        -0.03636331856250763,
        -0.04250448942184448,
        -0.003270014189183712,
        -0.020868219435214996,
        0.003148072399199009,
        -0.04639950022101402,
        0.034320130944252014,
        0.04905415698885918,
        -0.0016351600643247366,
        0.019234851002693176,
        -0.03637054190039635,
        -0.037297796458005905,
        0.0528012216091156,
        -0.015227577649056911,
        0.044757891446352005,
        -0.026469141244888306,
        -0.02397237904369831,
        0.0034064895007759333,
        0.07029370218515396,
        0.043495893478393555,
        0.011134978383779526,
        0.02882448583841324,
        0.04641870781779289,
        0.02887212112545967,
        0.06489033997058868,
        -0.019630130380392075,
        0.008117632940411568,
        -0.02449028566479683,
        0.034268077462911606,
        0.0072073317132890224,
        0.03989596292376518,
        0.04586918279528618,
        -0.00831751897931099,
        0.049034152179956436,
        0.038945745676755905,
        -0.03205673396587372,
        0.034340307116508484,
        0.027490293607115746,
        -0.05898836627602577,
        0.025178203359246254,
        -0.03796731308102608,
        0.035349518060684204,
        0.07455381751060486,
        -0.06410276889801025,
        0.030614187940955162,
        -0.009631196968257427,
        -0.060267750173807144,
        -0.006324753165245056,
        -0.048104315996170044,
        0.01758667826652527,
        -0.002120034769177437,
        -0.022263454273343086,
        -0.03525976836681366,
        -0.04935109615325928,
        0.036557603627443314,
        -0.012739228084683418,
        -0.012204793281853199,
        -0.0049445233307778835,
        -0.005682573188096285,
        0.08883537352085114,
        -0.04190603643655777,
        0.007128636818379164,
        0.1514539271593094,
        -0.055861812084913254,
        -0.021504616364836693,
        0.0057470062747597694,
        -0.01401008665561676,
        -0.016700666397809982,
        -0.0007304757600650191,
        -0.0016476461896672845,
        -0.010243878699839115,
        -0.004040318075567484,
        -0.0071485331282019615,
        0.007717978674918413,
        0.02301754802465439,
        -0.018634846433997154,
        0.021100793033838272,
        0.0027247413527220488,
        -0.023663043975830078,
        -0.0164602380245924,
        0.059500765055418015,
        -0.04892255738377571,
        0.025779495015740395,
        0.00545039027929306,
        0.021693155169487,
        0.0010080329375341535,
        -0.0121390912681818,
        -0.05601520836353302,
        0.020089128986001015,
        0.008897379040718079,
        -0.06130986660718918,
        -0.01478374283760786,
        -0.012208047322928905
      ]
    }
  ],
  "item2": [
    {
      "query": "'Failures haunt me all the time.How do I cope up?',",
      "embeddings": [
        -0.014865433797240257,
        0.03799322247505188,
        -0.012073654681444168,
        -0.015773756429553032,
        -0.019183095544576645,
        -0.007295653689652681,
        -0.004968598484992981,
        -0.031186694279313087,
        -0.009370416402816772,
        -0.10362902283668518,
        0.0319584459066391,
        0.06808401644229889,
        -0.024359531700611115,
        0.029281003400683403,
        -0.0402800478041172,
        0.1968739926815033,
        0.024081435054540634,
        -0.14383383095264435,
        -0.037403710186481476,
        0.028642117977142334,
        -0.05512433126568794,
        -0.058436643332242966,
        0.046623677015304565,
        -0.007175222039222717,
        -0.057913023978471756,
        0.04394284263253212,
        -0.010855061002075672,
        -0.007334450259804726,
        -0.07232457399368286,
        0.034791938960552216,
        0.09667984396219254,
        0.03446064889431,
        -0.04769085720181465,
        -0.05027280002832413,
        -0.02289976365864277,
        0.012184172868728638,
        -0.0006480602314695716,
        -0.015336217358708382,
        -0.006694852840155363,
        -0.052129074931144714,
        -0.030695084482431412,
        -0.02179974876344204,
        -0.03023747354745865,
        -0.02806233800947666,
        0.07238336652517319,
        0.01946844346821308,
        -0.03768676891922951,
        0.05307760089635849,
        0.0010058722691610456,
        -0.06818744540214539,
        0.016245020553469658,
        0.025926213711500168,
        0.05435599759221077,
        -0.024713264778256416,
        -0.04327109083533287,
        -0.04854440316557884,
        -0.017340855672955513,
        0.02479044534265995,
        0.026265766471624374,
        -0.05190768837928772,
        0.008462675847113132,
        -0.00810934416949749,
        0.0003823563165497035,
        -0.05172423645853996,
        0.027431486174464226,
        0.03414533659815788,
        0.06290262937545776,
        0.04437373951077461,
        0.02188197337090969,
        -0.02707122080028057,
        -0.1385502815246582,
        -0.012873007915914059,
        -0.013950517401099205,
        0.011996980756521225,
        -0.03877711296081543,
        -0.0052569275721907616,
        -0.023876478895545006,
        0.04033345356583595,
        -0.010007759556174278,
        -0.09562770277261734,
        -0.00811324454843998,
        -0.06028129532933235,
        0.11283732950687408,
        -0.04402424022555351,
        0.015542984008789062,
        -0.011737105436623096,
        -0.012383724562823772,
        0.002584850648418069,
        0.03729831799864769,
        0.04188491031527519,
        0.0016579855000600219,
        -0.045528020709753036,
        0.044611722230911255,
        -0.03348067030310631,
        -0.042298171669244766,
        -0.027982741594314575,
        0.0198905598372221,
        -0.026625225320458412,
        0.03447847068309784,
        0.045563701540231705,
        -0.05559055507183075,
        -0.06720297038555145,
        -0.045139506459236145,
        0.1129545122385025,
        0.016824107617139816,
        -0.005783883389085531,
        0.00041772794793359935,
        -0.07994754612445831,
        -0.07057098299264908,
        0.03234519809484482,
        0.015299088321626186,
        0.06910241395235062,
        0.02552921697497368,
        0.014650920405983925,
        -0.13513438403606415,
        0.0023315553553402424,
        0.05715254694223404,
        -0.0009678474743850529,
        0.0646880716085434,
        -0.03238523006439209,
        -0.058295443654060364,
        0.036367375403642654,
        0.031418345868587494,
        -0.06108077988028526,
        0.06451611965894699,
        0.007148424629122019,
        -0.008782238699495792,
        0.009288039989769459,
        0.01796337030827999,
        0.03448611497879028,
        -0.037666864693164825,
        -0.02580094151198864,
        0.027441803365945816,
        -0.014859144575893879,
        0.033649686723947525,
        0.019311122596263885,
        0.04188172146677971,
        -0.015867872163653374,
        -0.02112996205687523,
        -0.0007458034669980407,
        -0.08700971305370331,
        -0.020112425088882446,
        -0.057433418929576874,
        0.005134370643645525,
        -0.09031299501657486,
        0.034942056983709335,
        0.0013542516389861703,
        0.021494943648576736,
        -0.01700880005955696,
        -0.004508695099502802,
        -0.008768271654844284,
        -0.12482146918773651,
        0.023633694276213646,
        0.0703001469373703,
        -0.09166830033063889,
        -0.01032605767250061,
        0.0052289804443717,
        -0.055536992847919464,
        -0.036442287266254425,
        -0.05714893713593483,
        0.00026688072830438614,
        -0.0829031839966774,
        -0.004691150970757008,
        0.008040917105972767,
        -0.034714531153440475,
        -0.02447989024221897,
        -0.03147544711828232,
        -0.05197209492325783,
        -0.0066108484752476215,
        0.026760468259453773,
        0.06257134675979614,
        0.06886935234069824,
        0.0715150535106659,
        0.013746140524744987,
        0.0007253197254613042,
        -0.014265035279095173,
        0.019668877124786377,
        -0.04425949975848198,
        0.018078189343214035,
        0.043265774846076965,
        0.045493047684431076,
        0.032984018325805664,
        -0.026263469830155373,
        -0.022639118134975433,
        -0.009811805561184883,
        -0.004907180555164814,
        0.021041152998805046,
        -0.03300955519080162,
        0.009548796340823174,
        -0.01831964962184429,
        0.08031462132930756,
        0.02371794730424881,
        -0.09001971036195755,
        0.003741679945960641,
        -0.024318547919392586,
        0.032132744789123535,
        -0.05120089650154114,
        -0.0006404648302122951,
        0.007883469574153423,
        0.010690401308238506,
        0.00460244994610548,
        -0.09143581986427307,
        0.019635330885648727,
        0.044932201504707336,
        0.025616830214858055,
        -0.0015031240181997418,
        -0.08798494935035706,
        0.019815955311059952,
        0.0036824974231421947,
        0.033210452646017075,
        0.03626948222517967,
        -0.029383422806859016,
        0.005631169304251671,
        -0.004926547408103943,
        0.034265514463186264,
        -0.026533573865890503,
        0.016096917912364006,
        -0.0017592175863683224,
        -0.0071134380996227264,
        0.029721517115831375,
        0.03509951010346413,
        -0.019376235082745552,
        0.01735461875796318,
        0.03295472264289856,
        0.06317886710166931,
        -0.025791388005018234,
        -0.018699562177062035,
        0.04592379927635193,
        -0.007123365066945553,
        -0.05062435194849968,
        -0.012712561525404453,
        0.022505076602101326,
        0.01961834914982319,
        -0.04424431920051575,
        0.01594751887023449,
        0.007381484843790531,
        0.05781758949160576,
        0.003937418106943369,
        -0.05301178619265556,
        0.020195936784148216,
        -0.002567087300121784,
        -0.023285970091819763,
        -0.017121469601988792,
        0.003795274533331394,
        -0.04147729650139809,
        -0.02379259467124939,
        -0.0837196484208107,
        0.00785962212830782,
        0.04493793845176697,
        0.05924283340573311,
        0.04030286893248558,
        -0.003774779150262475,
        0.0201330054551363,
        0.02310464158654213,
        0.00044317563879303634,
        -0.02750212699174881,
        0.0050135450437664986,
        -0.015126087702810764,
        -0.008570054545998573,
        -0.0157497376203537,
        -0.013622177764773369,
        -0.015148602426052094,
        -0.04250967875123024,
        0.01064989808946848,
        0.02227637730538845,
        -0.004216961562633514,
        0.0300253015011549,
        0.010841302573680878,
        -0.06664004176855087,
        -0.03312544524669647,
        -0.018510589376091957,
        0.048336442559957504,
        -0.03501494973897934,
        0.0008382395026274025,
        -0.018352152779698372,
        0.05764365196228027,
        0.05660847947001457,
        -0.008068287745118141,
        0.025823021307587624,
        -0.0615176260471344,
        -0.07134617120027542,
        0.003642962547019124,
        0.011119367554783821,
        -0.0438847616314888,
        0.006060949061065912,
        -0.009589219465851784,
        0.031112371012568474,
        -0.012875556014478207,
        0.029570478945970535,
        -0.050751298666000366,
        0.047020625323057175,
        0.01477787271142006,
        0.061512697488069534,
        -0.034930553287267685,
        0.051234740763902664,
        -0.04161501303315163,
        -0.04972386732697487,
        -0.03585321828722954,
        -0.0017328119138255715,
        0.013192463666200638,
        0.046885404735803604,
        0.0623498260974884,
        -0.013151437044143677,
        -0.005631471984088421,
        -0.0015731236198917031,
        0.02559087984263897,
        -0.006709679961204529,
        -0.0482306070625782,
        0.008043359033763409,
        0.011765762232244015,
        0.0898699089884758,
        -0.02996428869664669,
        0.04934670403599739,
        0.06056222319602966,
        0.02799316495656967,
        -0.02495318464934826,
        -0.040278360247612,
        -0.057713285088539124,
        -0.014355901628732681,
        0.04500710964202881,
        -0.046646907925605774,
        0.005940556060522795,
        -0.005800393410027027,
        0.041177887469530106,
        -0.04792957752943039,
        0.07877392321825027,
        0.07205094397068024,
        -0.04112006723880768,
        -0.03528023511171341,
        0.0599900484085083,
        0.01572469249367714,
        0.03237355872988701,
        0.022423598915338516,
        0.04357675835490227,
        -0.0151364142075181,
        0.043691445142030716,
        0.025825081393122673,
        0.0358390174806118,
        -0.08093076944351196,
        -0.05603949353098869,
        0.0009184570517390966,
        0.012068914249539375,
        0.04656162112951279,
        -0.013083845376968384,
        -0.03808150812983513,
        -0.028182361274957657,
        -0.00588217843323946,
        0.017500266432762146,
        -0.01167779229581356,
        -0.04784533381462097,
        -0.07742064446210861,
        0.009864816442131996,
        -0.024011719971895218,
        0.023630546405911446,
        0.03989281505346298,
        -0.008310501463711262,
        0.06680835038423538,
        -0.0452396534383297,
        0.026765652000904083,
        -0.018757158890366554,
        0.035902272909879684,
        -0.004574088379740715,
        0.007286048494279385,
        -0.028595563024282455,
        -0.03732595220208168,
        -0.027093486860394478,
        -0.055653609335422516,
        0.007315498776733875,
        -0.010064791887998581,
        0.04079620540142059,
        -0.03488294780254364,
        -0.0004977862699888647,
        0.013793726451694965,
        -0.02811906300485134,
        0.007511850446462631,
        0.007308581378310919,
        -0.023146983236074448,
        0.011921870522201061,
        0.05311649292707443,
        0.04855889827013016,
        0.00928155891597271,
        0.043232645839452744,
        0.013731246814131737,
        -0.005848164204508066,
        0.07423505187034607,
        -0.0015826585004106164,
        0.01577010378241539,
        -0.0006718026706948876,
        -0.022122511640191078,
        -0.02728748321533203,
        0.02749081887304783,
        -0.06258538365364075,
        -0.017024002969264984,
        -0.013203008100390434,
        0.002555243903771043,
        -0.0037122045177966356,
        -0.00928855873644352,
        0.05121970549225807,
        0.0257919542491436,
        -0.03810645267367363,
        -0.04949725791811943,
        0.021434670314192772,
        0.00471038231626153,
        -0.039870332926511765,
        -0.04511331766843796,
        -0.047736357897520065,
        0.008132671937346458,
        0.04175257682800293,
        -0.009614110924303532,
        -0.003942101262509823,
        -0.07425693422555923,
        0.0347781702876091,
        -0.027410292997956276,
        0.06568833440542221,
        -0.0004045655659865588,
        0.09916944801807404,
        0.030380455777049065,
        0.06933794915676117,
        0.03130003809928894,
        0.025859054177999496,
        -0.017053158953785896,
        -0.013636812567710876,
        -0.002880766522139311,
        0.01984819583594799,
        -0.02669660374522209,
        0.04116082936525345,
        -0.003554286900907755,
        0.02708285115659237,
        0.024054069072008133,
        0.015480222180485725,
        -0.005643819458782673,
        -0.027435004711151123,
        -0.04349873214960098,
        -0.02077792026102543,
        0.041273679584264755,
        -0.011558922939002514,
        -0.014932040125131607,
        0.0284433551132679,
        -0.004744275473058224,
        0.00048486885498277843,
        0.031363558024168015,
        0.03839130699634552,
        0.05541590228676796,
        -0.03359999135136604,
        0.013670183718204498,
        0.020669197663664818,
        -0.04371168836951256,
        -0.027597414329648018,
        0.008979539386928082,
        0.016352372244000435,
        0.0020147033501416445,
        0.03547905385494232,
        0.032996248453855515,
        0.04091828316450119,
        0.07920445501804352,
        0.010863830335438251,
        0.04625287279486656,
        0.03726284205913544,
        -0.0287421066313982,
        0.01959673874080181,
        -0.006313527002930641,
        0.02214057184755802,
        0.005425078794360161,
        0.048142291605472565,
        -0.03613299876451492,
        0.06225545331835747,
        0.018700843676924706,
        -0.017836520448327065,
        0.03621135652065277,
        -0.021977830678224564,
        0.004945184104144573,
        -0.025593765079975128,
        -0.025309735909104347,
        -0.03793427348136902,
        -0.0067362659610807896,
        0.05491231009364128,
        0.009515545330941677,
        0.0377437025308609,
        0.03048221953213215,
        0.02456597052514553,
        0.025730673223733902,
        -0.009659596718847752,
        0.01742192730307579,
        -0.05364782735705376,
        0.025320444256067276,
        -0.07996011525392532,
        -0.0214809849858284,
        0.010263943113386631,
        -0.00090005062520504,
        -0.050879646092653275,
        0.07735467702150345,
        -0.05388983339071274,
        -0.01875186711549759,
        -0.003655538894236088,
        0.012324257753789425,
        0.019500495865941048,
        0.048245158046483994,
        -0.00668232562020421,
        0.014347945339977741,
        -0.018004514276981354,
        -0.002263205824419856,
        0.012025151401758194,
        0.1560373157262802,
        -0.04095230624079704,
        -0.008857463486492634,
        0.01748143881559372,
        0.05149113014340401,
        -0.03558649867773056,
        0.04038313403725624,
        0.005722581408917904,
        -0.007806200068444014,
        0.009210280142724514
      ]
    }
  ],
  "item3": [
    {
      "query": "'(Cannabis) Which is the best grow guide for an indoor soil setup?'",
      "embeddings": [
        -0.008878327906131744,
        0.021532973274588585,
        -0.012228592298924923,
        0.00046951553667895496,
        0.0024527607019990683,
        -0.015262859873473644,
        -0.0099415248259902,
        0.048536933958530426,
        -0.037603043019771576,
        -0.07842803746461868,
        0.030231177806854248,
        -0.03641735017299652,
        -0.041590720415115356,
        0.0291006900370121,
        -0.015127240680158138,
        0.13395646214485168,
        -0.03261648491024971,
        -0.12811368703842163,
        -0.05947462469339371,
        -0.007892618887126446,
        -0.011303176172077656,
        0.006205662619322538,
        -0.07786163687705994,
        0.04186753183603287,
        0.0928686335682869,
        -0.006044602952897549,
        -0.0011800603242591023,
        0.08382289856672287,
        -0.0564444474875927,
        -0.022230491042137146,
        0.0878162607550621,
        0.07597332447767258,
        0.005826999433338642,
        0.020385701209306717,
        0.06781135499477386,
        0.046170175075531006,
        -0.01252639852464199,
        0.04346323385834694,
        0.08404866605997086,
        -0.015492725186049938,
        0.018183719366788864,
        0.07727135717868805,
        -0.134906604886055,
        0.030711790546774864,
        0.04691525176167488,
        -0.027585523203015327,
        0.04466036334633827,
        0.005055395886301994,
        -0.11711201071739197,
        -0.047680702060461044,
        0.059579454362392426,
        0.05486761033535004,
        0.04405484348535538,
        0.035351064056158066,
        0.03231567144393921,
        -0.02256275899708271,
        0.03977217897772789,
        0.018362324684858322,
        0.047181081026792526,
        -0.03352055698633194,
        -0.046938132494688034,
        0.008972073905169964,
        -0.00539246853441,
        -0.003187354886904359,
        -0.008061097003519535,
        0.045865435153245926,
        0.045825548470020294,
        0.029277615249156952,
        0.044135577976703644,
        -0.02079097181558609,
        -0.07970649003982544,
        0.027563324198126793,
        -0.017072543501853943,
        -0.04892091080546379,
        -0.059575606137514114,
        0.005125814583152533,
        0.05944879353046417,
        0.09760722517967224,
        0.07440989464521408,
        -0.0751800686120987,
        0.04436351731419563,
        -0.0656183734536171,
        0.09115885943174362,
        -0.025272557511925697,
        -0.03148271515965462,
        0.025904729962348938,
        0.040843382477760315,
        0.07517701387405396,
        0.01828022487461567,
        0.01674271747469902,
        -0.04446866363286972,
        -0.029515856876969337,
        0.058949440717697144,
        -0.03601308912038803,
        -0.05223174765706062,
        -0.07962194830179214,
        0.05456629395484924,
        -0.027619723230600357,
        0.005082350689917803,
        0.014445196837186813,
        -0.01303116139024496,
        0.04967627301812172,
        0.01917453296482563,
        0.07433483004570007,
        0.009474989026784897,
        -0.046548034995794296,
        -0.04162556678056717,
        0.04591554030776024,
        -0.0202029962092638,
        0.002638451289385557,
        -0.027487583458423615,
        0.0602332279086113,
        0.0022904505021870136,
        -0.006040769163519144,
        0.06965836137533188,
        -0.03566809371113777,
        -0.05403964966535568,
        -0.0036075597163289785,
        0.06277335435152054,
        -0.004041474778205156,
        -0.0009214717429131269,
        -0.002059940481558442,
        -0.052671097218990326,
        0.04938837140798569,
        0.04256989061832428,
        0.03595520555973053,
        0.03569117933511734,
        -0.048340264707803726,
        0.023596834391355515,
        0.030313502997159958,
        0.0024993503466248512,
        0.062408141791820526,
        -0.004498363006860018,
        -0.017692938446998596,
        0.05657375976443291,
        0.018821783363819122,
        0.041986290365457535,
        0.021351289004087448,
        -0.010032287798821926,
        -0.018129738047719002,
        -0.027647370472550392,
        -0.017098544165492058,
        -0.0791584774851799,
        -0.06035370007157326,
        -0.09072655439376831,
        0.007710239849984646,
        0.018679790198802948,
        0.031786829233169556,
        -0.020819392055273056,
        0.012877704575657845,
        0.029813438653945923,
        -0.08876939862966537,
        -0.03689652681350708,
        -0.05538862571120262,
        -0.06451361626386642,
        0.020027922466397285,
        -0.03370790183544159,
        0.017355691641569138,
        -0.07456865906715393,
        -0.012861737981438637,
        -0.025903068482875824,
        -0.0781930461525917,
        -0.005325485952198505,
        0.048316359519958496,
        0.009775491431355476,
        0.011694204062223434,
        0.08445379137992859,
        -0.09625957161188126,
        -0.009223033674061298,
        -0.06572561711072922,
        0.11500300467014313,
        0.015149783343076706,
        0.06129329279065132,
        -0.02946299873292446,
        0.07039075344800949,
        0.02282862924039364,
        0.055716317147016525,
        0.022446002811193466,
        0.04898136481642723,
        0.0503421276807785,
        0.0022808508947491646,
        0.005221003666520119,
        0.015252342447638512,
        0.029269767925143242,
        -0.05006584897637367,
        -0.022637393325567245,
        -0.021157672628760338,
        -0.039145272225141525,
        -0.0528951920568943,
        -0.02874382957816124,
        0.0728745236992836,
        0.0264543816447258,
        0.027734899893403053,
        0.05742323026061058,
        -0.050769563764333725,
        -0.002869379473850131,
        0.0021347233559936285,
        0.05642463266849518,
        0.008243309333920479,
        0.06772584468126297,
        0.043611425906419754,
        0.007287272717803717,
        0.008958659134805202,
        0.10082115232944489,
        0.060601238161325455,
        0.027143554762005806,
        -0.03443801403045654,
        -0.009022444486618042,
        -0.038853250443935394,
        0.0998406633734703,
        0.025881998240947723,
        0.0041830032132565975,
        -0.03417343273758888,
        -0.04863468557596207,
        0.05280540511012077,
        0.01700441539287567,
        0.056710466742515564,
        -0.013580145314335823,
        -0.05659674480557442,
        -0.017009912058711052,
        0.037250302731990814,
        -0.07665369659662247,
        -0.04374672845005989,
        0.06513013690710068,
        0.040447451174259186,
        0.02303285151720047,
        -0.0744967833161354,
        0.04301808401942253,
        -0.0379490964114666,
        0.006856902036815882,
        0.03748815506696701,
        0.042175207287073135,
        0.07286949455738068,
        0.02723725140094757,
        0.020121878013014793,
        -0.007853318005800247,
        0.0318845734000206,
        -0.005918172653764486,
        0.03610486164689064,
        0.05173266679048538,
        0.00550992414355278,
        0.021329883486032486,
        0.0508827343583107,
        0.007612104061990976,
        0.042419739067554474,
        -0.0177924707531929,
        0.04012910649180412,
        0.0032310127280652523,
        0.04437550529837608,
        -0.018710436299443245,
        -0.06273569911718369,
        -0.0502779483795166,
        0.021892733871936798,
        -0.041133634746074677,
        0.07375478744506836,
        -0.02087041176855564,
        0.0049817063845694065,
        -0.01187229435890913,
        -0.025110796093940735,
        -0.06633578985929489,
        0.009988358244299889,
        0.05009576678276062,
        -0.023870181292295456,
        0.03707800805568695,
        -0.01464843936264515,
        0.025149349123239517,
        0.05608180910348892,
        -0.057464949786663055,
        -0.0237576924264431,
        0.028363492339849472,
        -0.026086285710334778,
        0.01098279282450676,
        -0.06065407395362854,
        0.07190944999456406,
        0.04559019207954407,
        -0.005818679463118315,
        0.00730792386457324,
        0.01957261562347412,
        0.04453491047024727,
        -0.0721391811966896,
        0.007659809663891792,
        0.009353408589959145,
        0.08543000370264053,
        -0.047958359122276306,
        -0.0198539849370718,
        -0.039278868585824966,
        -0.011241002939641476,
        0.005833358969539404,
        -0.020059319213032722,
        0.007772102020680904,
        -0.03723692148923874,
        0.0482194609940052,
        -0.029306553304195404,
        0.031511832028627396,
        0.02800711616873741,
        -0.080128014087677,
        -0.02062102220952511,
        -0.03353570029139519,
        -0.04914633557200432,
        0.0792161375284195,
        0.008062416687607765,
        -0.05984427034854889,
        0.02420978993177414,
        0.058313772082328796,
        -0.0152654480189085,
        -0.021664882078766823,
        0.027895143255591393,
        0.021864784881472588,
        0.059261810034513474,
        0.02707599475979805,
        -0.06341291218996048,
        -0.015567862428724766,
        0.023320280015468597,
        -0.022645900025963783,
        -0.02723061665892601,
        0.053859297186136246,
        0.004937429446727037,
        0.03060309775173664,
        0.018808120861649513,
        0.0018523491453379393,
        -0.042429368942976,
        0.015335067175328732,
        -0.03380296006798744,
        -0.01319199986755848,
        0.041114505380392075,
        -0.03231548145413399,
        0.030729537829756737,
        -0.0810346007347107,
        -0.028718125075101852,
        -0.008844461292028427,
        0.027635635808110237,
        -0.0029780615586787462,
        0.05315354838967323,
        -0.05531856790184975,
        0.012240794487297535,
        -0.05827080085873604,
        0.028733283281326294,
        -0.018172256648540497,
        0.008958379738032818,
        -0.0434199720621109,
        -0.003671121085062623,
        0.016036521643400192,
        -0.05089128389954567,
        0.08358613401651382,
        0.0079721137881279,
        -0.03891783207654953,
        -0.016401661559939384,
        0.015287407673895359,
        -0.038214728236198425,
        0.0004995660274289548,
        -0.0393262542784214,
        0.025194941088557243,
        -0.07761441916227341,
        -0.03708885610103607,
        -0.027003861963748932,
        -0.026143047958612442,
        0.03869279474020004,
        0.10604826360940933,
        0.011897529475390911,
        -0.0036651610862463713,
        0.019528113305568695,
        -0.011465947143733501,
        -0.053625889122486115,
        -0.014990326017141342,
        0.025584422051906586,
        0.042752720415592194,
        0.05533524602651596,
        0.0640774741768837,
        -0.027482468634843826,
        -0.0031283320859074593,
        0.06087356060743332,
        -0.027858376502990723,
        -0.06177534535527229,
        0.01874849759042263,
        0.01744702458381653,
        -0.024548806250095367,
        -0.024169009178876877,
        0.02335035800933838,
        -0.038979943841695786,
        0.017585059627890587,
        -0.028104335069656372,
        -0.029213648289442062,
        -0.041586387902498245,
        0.007630600593984127,
        -0.029782477766275406,
        -0.025637537240982056,
        -0.035310737788677216,
        -0.018648236989974976,
        0.018498919904232025,
        0.08076632022857666,
        -0.000991161330603063,
        -0.051802586764097214,
        0.04225754365324974,
        0.06063849851489067,
        -0.04570106416940689,
        -0.0014458870282396674,
        0.08339942246675491,
        -0.006348744034767151,
        -0.027057351544499397,
        0.07241325080394745,
        -0.01073456835001707,
        0.0066101690754294395,
        0.018350299447774887,
        -0.02165559120476246,
        -0.010030855424702168,
        0.09200894832611084,
        0.05629633367061615,
        -0.014415150508284569,
        0.006681434344500303,
        -0.04804104194045067,
        -0.016533682122826576,
        -0.001959526212885976,
        0.03721468523144722,
        0.06329258531332016,
        -0.02203996852040291,
        -0.03486775979399681,
        0.04242284968495369,
        -0.03770088776946068,
        -0.0016150632873177528,
        0.0016584111144766212,
        0.006617151666432619,
        0.055996838957071304,
        0.02272317185997963,
        0.03516959771513939,
        0.03189391270279884,
        0.07113657146692276,
        -0.016126947477459908,
        -0.027448026463389397,
        0.09908976405858994,
        0.10957787930965424,
        -0.024996252730488777,
        -0.05289477854967117,
        -0.03110809624195099,
        0.021983690559864044,
        0.012937420047819614,
        0.05862576887011528,
        0.019844576716423035,
        0.026163417845964432,
        0.013312000781297684,
        0.06709125638008118,
        -0.002435915404930711,
        0.03133464977145195,
        -0.026786111295223236,
        0.00019949069246649742,
        0.012598147615790367,
        0.023133311420679092,
        -0.08676281571388245,
        0.04551905766129494,
        -0.02031857706606388,
        -0.028683185577392578,
        0.0455436147749424,
        -0.0005079996190033853,
        0.03374123200774193,
        0.0017034311313182116,
        0.037773456424474716,
        -0.03434021770954132,
        0.08629290759563446,
        0.06637202203273773,
        0.06175317242741585,
        0.0203446913510561,
        0.0610651820898056,
        0.07606038451194763,
        -0.02726070024073124,
        -0.04158760979771614,
        0.054153092205524445,
        0.05122430995106697,
        0.043046705424785614,
        -0.023958729580044746,
        -0.028345899656414986,
        -0.010554029606282711,
        -0.0027614266145974398,
        -0.00684061273932457,
        0.04475284740328789,
        0.03335743770003319,
        0.021367985755205154,
        -0.04474784806370735,
        -0.0141295175999403,
        0.011337578296661377,
        0.01863868720829487,
        0.0022669758182018995,
        -0.06700063496828079,
        0.008244456723332405,
        -0.05007374659180641,
        0.0458703450858593,
        -0.005521540995687246,
        0.0528443343937397,
        -0.04615464806556702,
        0.03482699394226074,
        0.019175264984369278,
        0.056030526757240295,
        0.008043165318667889,
        -0.0019822895992547274,
        -0.0013095347676426172,
        -0.01599855348467827,
        -0.007686908356845379,
        0.014175625517964363,
        0.006593046244233847,
        -0.052504416555166245,
        0.004674909636378288,
        0.021004656329751015,
        -0.015336452051997185,
        0.0479363314807415,
        -0.02646685019135475,
        -0.009173164144158363,
        -0.004077184945344925,
        -0.00920588057488203,
        -0.07365158945322037,
        0.06673486530780792,
        0.0037614251486957073,
        0.04478875920176506,
        -0.033470649272203445,
        0.04566914588212967
      ]
    }
  ],
  "item4": [
    {
      "query": " what are the examples of  radio frequency identification systems used in tracking ?",
      "embeddings": [
        0.0021824820432811975,
        0.04531588777899742,
        0.0028078900650143623,
        -0.008640757761895657,
        -0.059562798589468,
        -0.010142841376364231,
        0.03746460750699043,
        -0.049482718110084534,
        0.03688853606581688,
        -0.05212785676121712,
        0.05268701910972595,
        -0.028947820886969566,
        0.0012150689726695418,
        -0.00965833105146885,
        0.03769988566637039,
        0.06876544654369354,
        0.034478019922971725,
        0.085865318775177,
        -0.028966154903173447,
        0.036080799996852875,
        0.0094962939620018,
        -0.03887098282575607,
        0.01313824113458395,
        0.0191106665879488,
        0.011310342699289322,
        0.08588114380836487,
        -0.008232804015278816,
        0.01782778464257717,
        -0.007274189032614231,
        0.037632375955581665,
        0.006520697847008705,
        0.01808459870517254,
        0.008234528824687004,
        -0.0527099184691906,
        0.029518915340304375,
        0.07823843508958817,
        -0.042875926941633224,
        -0.005706770811229944,
        -0.004928019363433123,
        -0.0717402994632721,
        -0.0030983295291662216,
        0.051380228251218796,
        -0.09218020737171173,
        -0.04667206481099129,
        0.07345741987228394,
        -0.03089810535311699,
        -0.07653646916151047,
        0.06330835074186325,
        0.03914166986942291,
        -0.011430091224610806,
        0.02113085612654686,
        -0.01526649110019207,
        0.036320239305496216,
        0.04484153911471367,
        -0.07483136653900146,
        0.041167158633470535,
        0.007022402249276638,
        -0.006107883993536234,
        0.03719462454319,
        -0.0018689512507990003,
        -0.01780189760029316,
        -0.0066290381364524364,
        -0.04898189753293991,
        0.0036479244008660316,
        -0.016219845041632652,
        0.00816465262323618,
        0.0032301570754498243,
        0.011704089120030403,
        0.025670936331152916,
        -0.02462843805551529,
        -0.0026342039927840233,
        -0.09425447881221771,
        0.03455038741230965,
        0.012986153364181519,
        0.05491757392883301,
        0.01569119282066822,
        0.07751987129449844,
        0.01067391224205494,
        0.0008773598819971085,
        -0.06398016214370728,
        -0.020218756049871445,
        -0.09135876595973969,
        0.08024246245622635,
        -0.012325149029493332,
        0.013175339438021183,
        -0.04096819460391998,
        0.022909142076969147,
        -0.028036415576934814,
        0.0318107046186924,
        -0.004225621465593576,
        -0.008129948750138283,
        -0.01809786446392536,
        0.0293364729732275,
        0.03213350102305412,
        -0.04176934435963631,
        -0.03898970037698746,
        -0.08197617530822754,
        0.06929238885641098,
        0.04137836769223213,
        0.016524963080883026,
        -0.021626757457852364,
        -0.014808048494160175,
        0.03741268441081047,
        -0.013540455140173435,
        0.010270997881889343,
        0.037001460790634155,
        0.0797446146607399,
        0.07938168942928314,
        0.02685685269534588,
        -0.009032171219587326,
        -0.005840401165187359,
        0.0026345658116042614,
        -0.03229663521051407,
        0.00885870773345232,
        0.04212910309433937,
        -0.028473760932683945,
        -0.0047096568159759045,
        -0.014549991115927696,
        0.10356923937797546,
        0.018714075908064842,
        0.01223987527191639,
        -0.012980268336832523,
        -0.022702531889081,
        0.008845166303217411,
        -0.013014190830290318,
        -0.05512223392724991,
        0.025224175304174423,
        -0.044926613569259644,
        -0.06965984404087067,
        -0.002052879426628351,
        0.018379516899585724,
        -0.026446837931871414,
        0.01461546216160059,
        0.0325593538582325,
        -0.03266463428735733,
        0.04532108083367348,
        -0.08375876396894455,
        0.0061379121616482735,
        -0.061529491096735,
        0.029294708743691444,
        -0.012648516334593296,
        -0.02398856170475483,
        0.050448838621377945,
        -0.07884194701910019,
        -0.05656317248940468,
        0.010714736767113209,
        -0.0003144950605928898,
        0.002173331333324313,
        0.02083440124988556,
        -0.05332386866211891,
        -0.0825936570763588,
        -0.03249233588576317,
        0.052076369524002075,
        -0.03430697321891785,
        0.08386009186506271,
        -0.03130295127630234,
        0.07349761575460434,
        -0.00460968678817153,
        -0.0022667679004371166,
        0.05278615653514862,
        0.034732554107904434,
        -0.023172207176685333,
        0.01796611212193966,
        -0.013234968297183514,
        0.006718785036355257,
        -0.06631045043468475,
        -0.008151687681674957,
        -0.012169303372502327,
        0.05299347639083862,
        -0.006512356922030449,
        0.11604338139295578,
        -0.08502060174942017,
        -0.0348566472530365,
        0.01437543984502554,
        -0.00957624614238739,
        0.0666370838880539,
        -0.07943800836801529,
        0.0019815731793642044,
        -0.012877062894403934,
        0.032574307173490524,
        -0.03260800614953041,
        0.048403169959783554,
        -0.03145601600408554,
        0.06868542730808258,
        0.07580986618995667,
        0.03369218111038208,
        0.024541383609175682,
        -0.043468303978443146,
        -0.03469880297780037,
        0.010035986080765724,
        -0.018766002729535103,
        -0.010302545502781868,
        0.016313539817929268,
        0.004498620983213186,
        -0.06950103491544724,
        0.03385501354932785,
        0.07768098264932632,
        0.04433898627758026,
        0.04477497190237045,
        0.009524303488433361,
        0.05550793930888176,
        0.07951292395591736,
        -0.00881369598209858,
        0.10195706784725189,
        0.005332005210220814,
        0.005662765819579363,
        -0.021651754155755043,
        0.05570608377456665,
        0.009017577394843102,
        0.043340131640434265,
        -0.033874448388814926,
        -0.01978238672018051,
        -0.10494177043437958,
        0.04760666564106941,
        0.003705560462549329,
        0.08609327673912048,
        -0.006085976026952267,
        -0.02461816743016243,
        -0.014080018736422062,
        0.020146356895565987,
        -0.04445608705282211,
        0.009168572723865509,
        0.00434268219396472,
        -0.03330603986978531,
        0.030914757400751114,
        -0.01796126179397106,
        0.01218643318861723,
        0.0011057737283408642,
        -0.008541454561054707,
        -0.029242269694805145,
        -0.010987932793796062,
        0.008415799587965012,
        -0.003682428505271673,
        0.016136743128299713,
        0.011979576200246811,
        0.06543031334877014,
        0.06464015692472458,
        -0.06666398048400879,
        -0.03338661044836044,
        0.08033376932144165,
        -0.010149788111448288,
        0.0048664589412510395,
        -0.036702703684568405,
        0.012838085182011127,
        0.006345354486256838,
        -0.11041112244129181,
        -0.007232997100800276,
        0.0583035908639431,
        -0.04705417901277542,
        -0.08964622020721436,
        0.001792204100638628,
        -0.0663105770945549,
        0.016972312703728676,
        -0.05583951622247696,
        -0.04845379292964935,
        -0.0396958626806736,
        0.032072052359580994,
        -0.03298826515674591,
        -0.002425630809739232,
        -0.03517009690403938,
        0.044368188828229904,
        -0.03928463160991669,
        -0.016928568482398987,
        -0.029575202614068985,
        -0.030591506510972977,
        -0.02839570678770542,
        0.003589275758713484,
        -0.06359872221946716,
        -0.022473277524113655,
        -0.01931861788034439,
        -0.004620154853910208,
        -0.05302644148468971,
        -0.0030384554993361235,
        0.04548286274075508,
        -0.008455509319901466,
        0.021851912140846252,
        -0.003629550337791443,
        0.05929764360189438,
        0.06394170224666595,
        -0.056000202894210815,
        -0.015431703999638557,
        -0.056750040501356125,
        0.034675855189561844,
        -0.032525576651096344,
        -0.07819253206253052,
        -0.007167481817305088,
        0.012550623156130314,
        -0.01401748601347208,
        0.020413151010870934,
        -0.019314493983983994,
        0.024870017543435097,
        -0.06692223250865936,
        0.026140039786696434,
        -0.010486110113561153,
        0.05889993906021118,
        -0.11165043711662292,
        0.008429715409874916,
        0.04212826490402222,
        -0.011001245118677616,
        0.08588999509811401,
        -0.05471064895391464,
        0.026454420760273933,
        -0.020913539454340935,
        -0.0049232724122703075,
        -0.04535094276070595,
        -0.02446857839822769,
        -0.03644748404622078,
        0.05936753377318382,
        -0.001718546380288899,
        0.05428040027618408,
        -0.06152809038758278,
        0.003290686057880521,
        0.032546266913414,
        -0.004869961179792881,
        0.024831466376781464,
        -0.011229210533201694,
        -0.046522144228219986,
        -0.03395748510956764,
        0.017661388963460922,
        -0.05433373153209686,
        -0.02260718122124672,
        -0.009777628816664219,
        -0.0038192037027329206,
        0.05144961178302765,
        0.02994776889681816,
        0.005173773039132357,
        -0.030811505392193794,
        0.050023939460515976,
        0.054810572415590286,
        0.020844103768467903,
        -0.032057374715805054,
        -0.004709848668426275,
        -0.021970227360725403,
        -0.0174182690680027,
        -0.010979393497109413,
        -0.018938936293125153,
        0.003677783068269491,
        0.011582775972783566,
        -0.024982841685414314,
        -0.06039809808135033,
        -0.011839780956506729,
        -0.0025162689853459597,
        0.022085407748818398,
        -0.02180182747542858,
        -0.02680809795856476,
        0.01915161684155464,
        -0.005669835954904556,
        0.06699089705944061,
        -0.0701802521944046,
        0.002393989823758602,
        -0.026136640459299088,
        0.045854516327381134,
        -0.022641045972704887,
        -0.023445975035429,
        -0.12414121627807617,
        -0.04870313033461571,
        0.08463701605796814,
        -0.008060898631811142,
        0.04924487695097923,
        -0.068560391664505,
        0.06246991083025932,
        -0.017901960760354996,
        0.05901337414979935,
        0.04038187488913536,
        0.019197862595319748,
        -0.047560375183820724,
        -0.0049321758560836315,
        -0.06070801988244057,
        0.013472720980644226,
        0.027451714500784874,
        -0.03685387596487999,
        0.06268548965454102,
        -0.01579831913113594,
        0.0022803351748734713,
        0.05998600274324417,
        -0.014942252077162266,
        0.011604050174355507,
        -0.034351930022239685,
        0.02839510329067707,
        -0.00026478758081793785,
        0.051554124802351,
        -0.009429552592337132,
        0.013018331490457058,
        -0.018695302307605743,
        0.04146314039826393,
        -0.04895009100437164,
        0.04545452445745468,
        -0.02065969444811344,
        -0.05922310799360275,
        0.04593879356980324,
        -0.047099173069000244,
        -0.002315518446266651,
        0.05620401352643967,
        0.023589221760630608,
        0.033328741788864136,
        -0.03793247044086456,
        -0.06345190107822418,
        0.037883393466472626,
        -0.008652071468532085,
        0.04169353097677231,
        -0.030065292492508888,
        0.05375450477004051,
        0.016971509903669357,
        0.053717248141765594,
        0.016061468049883842,
        0.023188315331935883,
        0.09113036841154099,
        -0.08474564552307129,
        0.04191376268863678,
        0.013391511514782906,
        -0.02916134148836136,
        0.054996706545352936,
        0.0023451042361557484,
        -0.0358184315264225,
        -0.059035830199718475,
        0.05157511308789253,
        0.027505196630954742,
        0.015618511475622654,
        -0.03936789557337761,
        -0.040409572422504425,
        -0.00126167805865407,
        -0.061621855944395065,
        -0.057587116956710815,
        0.009376655332744122,
        0.024467453360557556,
        0.06814879924058914,
        -0.006070611532777548,
        -0.020339475944638252,
        0.02333969995379448,
        -0.006499298382550478,
        0.05059817060828209,
        -0.033719535917043686,
        0.018136626109480858,
        0.00941773597151041,
        -0.040324803441762924,
        0.04864272475242615,
        0.012933879159390926,
        -0.025119494646787643,
        0.04357919842004776,
        -0.03600170835852623,
        -0.0007639716495759785,
        -0.0011647598585113883,
        -0.03618837520480156,
        0.007104866206645966,
        0.01276541966944933,
        0.00894964300096035,
        -0.041135676205158234,
        0.05396371707320213,
        -0.03565935790538788,
        -0.007760773412883282,
        -0.0315263606607914,
        -0.00045541717554442585,
        0.021419493481516838,
        -0.021183807402849197,
        0.0010812160326167941,
        -0.00451287254691124,
        0.0581071637570858,
        0.026553459465503693,
        -0.07681746780872345,
        -0.046887196600437164,
        -0.013705862686038017,
        0.03970731422305107,
        -0.05881011486053467,
        0.03849305212497711,
        -0.03101123869419098,
        0.002899887738749385,
        0.05741852894425392,
        0.07739260792732239,
        0.056345850229263306,
        0.04568964242935181,
        -0.03788237273693085,
        0.04454028606414795,
        0.03239471837878227,
        0.021318336948752403,
        0.04124163091182709,
        0.0208542812615633,
        0.0008258389425463974,
        -0.02105364203453064,
        0.006550039630383253,
        0.005917188711464405,
        0.014154443517327309,
        0.044948283582925797,
        -0.07594466954469681,
        -0.06808113306760788,
        -0.011566925793886185,
        -0.053172994405031204,
        -0.05328129231929779,
        0.000869653420522809,
        -0.004234021529555321,
        0.08319611847400665,
        -0.0396895594894886,
        0.05946623533964157,
        -0.002687467262148857,
        -0.03788893669843674,
        0.012788595631718636,
        -0.0512814037501812,
        0.014572454616427422,
        -0.08796706050634384,
        -0.02236565202474594,
        0.10319366306066513,
        0.08038826286792755,
        -0.026483336463570595,
        -0.02501080185174942,
        -0.01368971262127161,
        0.05164812132716179,
        0.023754091933369637,
        -0.00660322979092598,
        -0.059344321489334106,
        -0.055265460163354874,
        0.04022902250289917,
        -0.02917259931564331,
        0.010681813582777977
      ]
    }
  ]
}